# Blender v2.70 (sub 0) OBJ File: ''
# www.blender.org
mtllib DiceBox.mtl
o Cieling_Plane.006
v -3.000000 -4.500000 10.000000
v 3.000000 -4.500000 10.000000
v -3.000000 4.500000 10.000000
v 3.000000 4.500000 10.000000
vt 0.000100 0.999900
vt 0.000100 0.000100
vt 0.999900 0.000100
vt 0.999900 0.999900
usemtl WallColor
s off
f 1/1 3/2 4/3
f 2/4 1/1 4/3
o Floor_Plane.005
v -3.000000 -4.500000 0.000000
v 3.000000 -4.500000 0.000000
v -3.000000 4.500000 0.000000
v 3.000000 4.500000 0.000000
vt -0.499800 -0.999700
vt 1.499800 -0.999700
vt 1.499800 1.999700
vt -0.499800 1.999700
usemtl FloorColor
s off
f 5/5 6/6 8/7
f 7/8 5/5 8/7
o WallS_Plane.004
v -3.000000 4.500000 0.000000
v 3.000000 4.500000 0.000000
v -3.000005 4.500000 10.000000
v 2.999995 4.500000 10.000000
vt 0.000099 0.899924
vt 0.000095 0.000099
vt 0.999901 0.000095
vt 0.999905 0.899920
usemtl WallColor
s off
f 9/9 10/10 12/11
f 11/12 9/9 12/11
o WallN_Plane.003
v -3.000000 -4.500000 0.000000
v 3.000000 -4.500000 0.000000
v -3.000005 -4.500000 10.000000
v 2.999995 -4.500000 10.000000
vt 0.000095 0.000099
vt 0.999902 0.000095
vt 0.999905 0.899922
vt 0.000098 0.899925
usemtl WallColor
s off
f 13/13 15/14 16/15
f 14/16 13/13 16/15
o WallW_Plane.002
v 2.999995 -4.500000 10.000000
v 3.000000 -4.500000 0.000000
v 2.999995 4.500000 10.000000
v 3.000000 4.500000 0.000000
vt 0.000078 0.599985
vt 0.000077 0.000079
vt 0.999922 0.000077
vt 0.999923 0.599984
usemtl WallColor
s off
f 17/17 19/18 20/19
f 18/20 17/17 20/19
o WallE_Plane.001
v -3.000000 -4.500000 10.000000
v -3.000000 -4.500000 0.000000
v -3.000000 4.500000 10.000000
v -3.000000 4.500000 0.000000
vt 0.000077 0.000080
vt 0.999921 0.000077
vt 0.999923 0.599984
vt 0.000079 0.599986
usemtl WallColor
s off
f 21/21 22/22 24/23
f 23/24 21/21 24/23
